{
  "$schema": "https://raw.githubusercontent.com/streetsidesoftware/cspell/main/cspell.schema.json",
  "version": "0.2",
  "dictionaryDefinitions": [],
  "language": "en,es",
  "useGitignore": true,
  "dictionaries": [],
  "ignorePaths": [".yarn"],
  "words": []
}
